                                                                                                                     
,--.   ,--.,--.                                                   ,--.                 ,--------.              ,--.   
|   `.'   |`--' ,---.,--.--. ,---.  ,---.  ,---. ,--.--.,--.  ,--.`--' ,---. ,---.     '--.  .--',---.  ,---.,-'  '-. 
|  |'.'|  |,--.| .--'|  .--'| .-. |(  .-' | .-. :|  .--' \  `'  / ,--.| .--'| .-. :       |  |  | .-. :(  .-''-.  .-' 
|  |   |  ||  |\ `--.|  |   ' '-' '.-'  `)\   --.|  |     \    /  |  |\ `--.\   --.       |  |  \   --..-'  `) |  |   
`--'   `--'`--' `---'`--'    `---' `----'  `----'`--'      `--'   `--' `---' `----'       `--'   `----'`----'  `--'   
                                                                                                                      
 :: Spring Boot ::      ${spring-boot.formatted-version}